ATLAS CENTAUR 2         
1 00694U 63047A   20349.11427297  .00000789  00000-0  88978-4 0  9998
2 00694  30.3608 341.5411 0585324 306.7813  48.0427 14.02701827861962
THOR AGENA D R/B        
1 00733U 64002A   20349.20090056  .00000047  00000-0  34693-4 0  9995
2 00733  98.9941 247.5320 0034775  68.4801 292.0083 14.32417715964975
SL-3 R/B                
1 00877U 64053B   20348.84370920 -.00000096  00000-0  56886-5 0  9994
2 00877  65.0760 164.7403 0076365 318.6047  40.9280 14.59410069987678
SL-8 R/B                
1 02802U 67045B   20349.18537689  .00000044  00000-0  20502-4 0  9990
2 02802  74.0121 311.0671 0065269  58.0534 302.6947 14.43789273813125
SL-8 R/B                
1 03230U 68040B   20348.90144457  .00000235  00000-0  27796-4 0  9992
2 03230  74.0351 208.9307 0030378 183.4949 176.6026 14.90697996804334
OAO 2                   
1 03597U 68110A   20348.81576818  .00000010  00000-0  80553-5 0  9998
2 03597  34.9931 123.8281 0005774   0.3023 359.7670 14.45867722742175
ISIS 1                  
1 03669U 69009A   20348.30286396  .00000069  00000-0  46104-4 0  9996
2 03669  88.4350   6.8092 1711470 346.2262   9.7113 11.29493148132576
SERT 2                  
1 04327U 70009A   20348.74909824 -.00000025  00000-0  21002-4 0  9999
2 04327  99.1713  24.3399 0005170  32.0933  75.2952 13.58495621520271
SL-3 R/B                
1 04814U 70113B   20348.91066611  .00002406  00000-0  67416-4 0  9996
2 04814  81.1416 301.0752 0024473  16.2769 343.9250 15.35874067730674
SL-3 R/B                
1 05118U 71028B   20348.89409182  .00000904  00000-0  46126-4 0  9997
2 05118  81.2543 130.2297 0046026 323.5903  36.2196 15.14767685696982
ASTEX 1                 
1 05560U 71089A   20348.83638189  .00000123  00000-0  33152-4 0  9998
2 05560  92.7223 254.6317 0017997  51.0880 309.1925 14.48102189585483
SL-8 R/B                
1 05730U 71119B   20348.89137437  .00002160  00000-0  13939-3 0  9990
2 05730  73.8936  37.6145 0688183  27.5603 336.0303 14.04590178384648
COSMOS 482 DESCENT CRAFT
1 06073U 72023E   20349.45873402  .00031948  63217-5  12597-3 0  9997
2 06073  52.0324 158.4202 1317147 140.5655 229.9016 13.16669499525821
OAO 3 (COPERNICUS)      
1 06153U 72065A   20349.12955091  .00000048  00000-0  14673-4 0  9992
2 06153  35.0082   5.4583 0006534  30.0399  82.4873 14.57961986567198
ATLAS CENTAUR R/B       
1 06155U 72065B   20349.14090322  .00000113  00000-0  21216-4 0  9997
2 06155  35.0041 278.4816 0038362 222.2144 137.5598 14.71629934580015
SL-8 R/B                
1 07004U 73107B   20349.41372368  .00034174  20862-5  20102-3 0  9991
2 07004  73.9171 106.7033 0078256   5.5706 354.6369 15.73966770435438
SL-8 R/B                
1 08459U 75112B   20349.16972666  .00000022  00000-0  16204-4 0  9994
2 08459  74.0616 290.1410 0015279 144.0222 216.1963 14.36824200357449
SL-3 R/B                
1 10114U 77057B   20349.14215830  .00000546  00000-0  30359-4 0  9994
2 10114  97.3310 132.1989 0013792 174.6755 185.4628 15.17623362377021
SEASAT 1                
1 10967U 78064A   20349.18992096 -.00000066  00000-0  20753-4 0  9994
2 10967 107.9993  86.5710 0001476 237.4550 122.6452 14.43849900230766
METEOR 1-29             
1 11251U 79005A   20349.07641102  .00002023  00000-0  54116-4 0  9998
2 11251  97.6649 279.7425 0014647 194.9500 165.1314 15.39266630835692
SL-14 R/B               
1 11267U 79011B   20348.84051816  .00000110  00000-0  90863-5 0  9998
2 11267  82.5251 104.9899 0015619 310.4595  49.5261 14.88994701244087
SL-8 R/B                
1 11574U 79089B   20349.20352686  .00000025  00000-0  15937-4 0  9997
2 11574  74.0707  23.4943 0016841 319.6453  40.3452 14.40779410160902
SL-14 R/B               
1 11672U 80005B   20349.01397497  .00000108  00000-0  89690-5 0  9994
2 11672  82.5145 315.0197 0017865  45.2432 315.0236 14.88020813213110
SL-8 R/B                
1 12139U 81003B   20349.05762090  .00002108  00000-0  97618-4 0  9991
2 12139  82.9470 166.7737 0460685  14.7448 346.6674 14.57736537 32607
SL-3 R/B                
1 12465U 81046B   20349.15314156  .00000319  00000-0  15540-4 0  9993
2 12465  81.2421 357.5840 0034297  16.8399 343.3959 15.14779606160561
METEOR PRIRODA          
1 12585U 81065A   20349.02642767  .00000972  00000-0  45734-4 0  9998
2 12585  97.5615 338.3436 0012500 260.7928  99.1894 15.21956868156236
SL-3 R/B                
1 12904U 81103B   20349.44702510  .00000335  00000-0  21250-4 0  9995
2 12904  81.1783 257.2237 0028140 181.8202 178.2923 15.05905135684869
SL-3 R/B                
1 13068U 82013B   20349.10747042  .00000074  00000-0  32474-5 0  9991
2 13068  81.2041 205.1359 0022107  64.5905 295.7604 15.07536063115693
SL-3 R/B                
1 13154U 82039B   20348.92175991  .00000243  00000-0  17959-4 0  9990
2 13154  81.1842 229.5719 0041149  96.4970 264.0937 14.98814564 94531
SL-3 R/B                
1 13403U 82079B   20348.85077883  .00000166  00000-0  92576-5 0  9997
2 13403  81.1688 247.3664 0034585  33.5893 326.7513 15.07269359 88632
COSMOS 1408             
1 13552U 82092A   20349.11823370  .00001955  00000-0  69548-4 0  9996
2 13552  82.5677  99.0885 0016859 214.9742 145.0391 15.28215051 91812
SL-14 R/B               
1 13553U 82092B   20348.91960064  .00000084  00000-0  70213-5 0  9990
2 13553  82.5681 125.3818 0022254 145.3992 332.1858 14.84252820 45189
SL-3 R/B                
1 13819U 83010B   20349.47147394  .00000747  00000-0  37107-4 0  9991
2 13819  81.1158 108.6871 0032574  41.6017 318.7680 15.15946456 67023
COSMOS 1455             
1 14032U 83037A   20349.34090590  .00000907  00000-0  42184-4 0  9998
2 14032  82.5164 265.5984 0017408 155.9667 204.2384 15.18533430 54955
SL-3 R/B                
1 14208U 83075B   20349.15181821  .00000656  00000-0  42087-4 0  9995
2 14208  97.4164 327.1352 0039910  49.7294 310.7415 15.11262422 40166
COSMOS 1500             
1 14372U 83099A   20348.96229067  .00001000  00000-0  46130-4 0  9993
2 14372  82.5138 161.3190 0014178 331.7419 142.7536 15.19000000 31048
COSMOS 1536             
1 14699U 84013A   20348.93358310  .00001060  00000-0  71278-4 0  9990
2 14699  82.5249 173.7942 0013464  26.8876 333.3046 15.05691871983868
COSMOS 1544             
1 14819U 84027A   20349.08295745  .00001738  00000-0  61540-4 0  9991
2 14819  82.4820 182.7108 0012244 217.7480 142.2902 15.28371203 10539
SL-14 R/B               
1 14820U 84027B   20348.83726789  .00000106  00000-0  98873-5 0  9990
2 14820  82.5438 233.6311 0018999 166.6910 193.4811 14.83680907964014
ERBS                    
1 15354U 84108B   20348.81098540  .00005250  00000-0  96447-4 0  9997
2 15354  57.0062  16.0086 0013482  54.2172 306.0137 15.50946200995375
SL-8 R/B                
1 15483U 85006B   20348.95318594  .00000123  00000-0  50837-4 0  9994
2 15483  74.0436 173.6274 0019187 203.0752 263.7373 14.36341270879435
COSMOS 1626             
1 15494U 85009A   20349.20938776  .00001371  00000-0  54473-4 0  9994
2 15494  82.4801  50.9460 0000744 234.3318 125.7850 15.24490975963058
SL-12 R/B(2)            
1 15772U 85042D   20348.95865667 -.00000051  00000-0 -13060-5 0  9993
2 15772  71.1052 163.6965 0036979 222.2524 247.3440 14.21281036842713
SL-14 R/B               
1 15945U 85069B   20348.80920940  .00000107  00000-0  98347-5 0  9995
2 15945  82.5280  18.2851 0020570  35.8260 324.4330 14.84057308889132
SL-3 R/B                
1 16111U 85090B   20348.76990792  .00013872  00000-0  12861-3 0  9990
2 16111  97.4812 172.9518 0009484 330.6340  29.4386 15.67552045943086
SL-16 R/B               
1 16182U 85097B   20348.93004302  .00000001  00000-0  24594-4 0  9994
2 16182  71.0004 203.8715 0009706 285.7157 167.6326 14.16255934816562
SL-14 R/B               
1 16496U 86006B   20348.90026014  .00000102  00000-0  92912-5 0  9996
2 16496  82.5261 253.9236 0019306 174.1370 233.1565 14.84161158865467
COSMOS 1743             
1 16719U 86034A   20348.81686436  .00001009  00000-0  51024-4 0  9990
2 16719  82.5515 181.6240 0011896 175.6954 194.8448 15.15844897888606
SL-14 R/B               
1 16792U 86046B   20348.86442568  .00000090  00000-0  79734-5 0  9993
2 16792  82.4837  81.9327 0025436  54.7129  85.1092 14.83263687842880
SL-14 R/B               
1 16882U 86055B   20348.85713354  .00000100  00000-0  92467-5 0  9996
2 16882  82.5209 119.2244 0020393 158.4746 315.3363 14.83247570835885
AJISAI (EGS)            
1 16908U 86061A   20349.15791082 -.00000068  00000-0  21120-3 0  9990
2 16908  50.0069 211.1228 0011570 101.0203   7.2320 12.44493175230328
COSMOS 1812             
1 17295U 87003A   20349.20247838  .00000704  00000-0  35268-4 0  9993
2 17295  82.5130 328.3853 0004518  49.9180 310.2448 15.15749359852170
SL-14 R/B               
1 17567U 87024B   20348.80895697  .00000098  00000-0  88668-5 0  9994
2 17567  82.5299  85.0001 0020749  97.3008 263.0566 14.83783575804535
COSMOS 1833             
1 17589U 87027A   20349.19248238 -.00000042  00000-0  32206-5 0  9994
2 17589  70.9216  23.3258 0018153 204.0616 155.9659 14.12912491740530
SL-16 R/B               
1 17590U 87027B   20349.16218690  .00000144  00000-0  95609-4 0  9999
2 17590  71.0029 342.9500 0004710 185.5368 174.5705 14.16793434744842
SL-14 R/B               
1 17912U 87038B   20348.93421018  .00000102  00000-0  95378-5 0  9991
2 17912  82.5016 293.2564 0020036 353.9250   6.1718 14.83059066795728
COSMOS 1844             
1 17973U 87041A   20349.03389862 -.00000296  00000-0 -12956-3 0  9999
2 17973  70.8967 104.5545 0030626   6.9656 353.1885 14.14106399733508
SL-14 R/B               
1 18153U 87055B   20348.56295700  .00000098  00000-0  90209-5 0  9996
2 18153  82.4993 346.9933 0021033 197.8982 162.1495 14.83307326786337
COSMOS 1867             
1 18187U 87060A   20349.12148766 -.00000066  00000-0  12802-4 0  9999
2 18187  65.0106 257.8915 0016132 282.1416  77.7861 14.31117441746582
COSMOS 1892             
1 18421U 87088A   20349.38615421  .00001212  00000-0  58908-4 0  9995
2 18421  82.5007  95.4504 0015582 156.0898 204.1063 15.17374096812050
SL-14 R/B               
1 18749U 88001B   20348.94722458  .00000106  00000-0  99492-5 0  9999
2 18749  82.5137 189.4331 0020197  68.5180  48.4451 14.83238069758474
COSMOS 1933             
1 18958U 88020A   20349.18989112  .00000737  00000-0  51557-4 0  9990
2 18958  82.5287 312.0141 0009960 259.5657 100.4447 15.03819888783267
SL-3 R/B                
1 19046U 88032B   20348.91135330  .00000465  00000-0  38701-4 0  9991
2 19046  97.3955   1.9367 0035504 316.8641  42.9803 15.02822566763911
SL-16 R/B               
1 19120U 88039B   20348.91763390  .00000256  00000-0  14492-3 0  9992
2 19120  71.0132 149.3084 0020865  26.5315 333.6873 14.19216302687116
COSMOS 1953             
1 19210U 88050A   20348.83946826  .00001188  00000-0  79266-4 0  9999
2 19210  82.5178 235.6813 0011916 223.4448 136.5841 15.06113011748667
SL-8 R/B                
1 19257U 88053B   20348.87475920  .00000071  00000-0  32471-4 0  9996
2 19257  74.0497  31.0758 0021319 322.8515 211.2690 14.37493895701780
COSMOS 1975             
1 19573U 88093A   20348.81206042  .00000131  00000-0  72088-5 0  9998
2 19573  82.5193 190.4421 0012525 271.3132  88.6660 15.05010456730483
SL-14 R/B               
1 19574U 88093B   20349.19916036  .00000107  00000-0  10107-4 0  9998
2 19574  82.5327  31.9697 0020464 226.4567 195.6151 14.83349231738608
SL-16 R/B               
1 19650U 88102B   20349.08431320  .00000212  00000-0  13201-3 0  9994
2 19650  70.9990 212.1818 0012953  33.3575 326.8362 14.15797265656583
INTERCOSMOS 24          
1 20261U 89080A   20349.18967869  .00000247  00000-0  66847-4 0  9996
2 20261  82.6052 263.9557 1203195  33.1240 333.9645 12.56157014426150
SL-14 R/B               
1 20262U 89080C   20349.17799274 -.00000000  00000-0 -23795-5 0  9994
2 20262  82.5931 318.7961 1236008 227.3141 121.7208 12.48953330420990
DELTA 2 R/B(1)          
1 20303U 89085B   20349.12349197  .00004603  00000-0  14534-3 0  9995
2 20303  35.6377 321.2502 0093400 334.0460  25.5603 15.28179623695557
DELTA 1 R/B             
1 20323U 89089B   20348.91084169  .00000048  00000-0  21411-4 0  9994
2 20323  97.1145 106.2989 0072352  27.6163 332.8848 14.48374168618847
ARIANE 40 R/B           
1 20443U 90005H   20349.43739765  .00000030  00000-0  24494-4 0  9999
2 20443  98.5550  50.7623 0010868 161.5408 198.6175 14.38109368618249
DELTA 2 R/B(1)          
1 20453U 90008B   20349.25614169  .00002865  00000-0  16020-3 0  9996
2 20453  35.6248 275.8326 0278772   6.0078 354.3878 14.85996933637956
COSMOS 2058             
1 20465U 90010A   20348.86118562  .00000488  00000-0  38937-4 0  9995
2 20465  82.4896 100.7091 0014307 320.5719  39.4461 14.98101646655188
SL-14 R/B               
1 20466U 90010B   20349.14818843  .00000091  00000-0  85468-5 0  9999
2 20466  82.5041 258.5948 0022015 105.9749 254.3893 14.81403474666396
SL-14 R/B               
1 20511U 90018B   20349.10254404  .00000098  00000-0  98811-5 0  9994
2 20511  82.5233 205.8301 0016033 246.9592 224.9889 14.80058969660782
HST                     
1 20580U 90037B   20348.92597152  .00000620  00000-0  26681-4 0  9996
2 20580  28.4687 212.5376 0002567 221.9022 157.7131 15.09510454483077
SL-16 R/B               
1 20625U 90046B   20349.17824416  .00000048  00000-0  49832-4 0  9997
2 20625  70.9997 350.9612 0015779 321.5557  38.4440 14.14665611578289
COSMOS 2084             
1 20663U 90055A   20348.92476709  .00000138  00000-0  31339-4 0  9992
2 20663  62.7950 288.9353 0041997 331.5178  28.3620 14.92161400650138
SL-6 R/B(2)             
1 20666U 90055D   20348.94724957  .00000067  00000-0  24422-4 0  9994
2 20666  62.7842 204.8491 0072132  12.3853 347.8991 14.92408915651552
SL-8 R/B                
1 20775U 90078B   20349.53195800  .00002332  00000-0  11223-3 0  9996
2 20775  82.9283  78.0759 0570518 356.7329   3.0188 14.35070857531551
SL-8 R/B                
1 21088U 91006B   20348.92438177 -.00000048  00000-0 -64103-4 0  9995
2 21088  82.9410 151.7992 0022313 351.7804 115.0641 13.77148329500916
OKEAN-3                 
1 21397U 91039A   20348.80048639  .00000329  00000-0  29145-4 0  9998
2 21397  82.5214   6.2128 0016260 291.3259  68.6226 14.93006940579020
COSMOS 2151             
1 21422U 91042A   20349.44426705  .00000224  00000-0  19416-4 0  9990
2 21422  82.5003 111.5853 0013951 358.0588   2.0575 14.92188858598804
SL-14 R/B               
1 21423U 91042B   20348.71894630  .00000100  00000-0  10204-4 0  9995
2 21423  82.4943 209.3568 0018488  36.0543 324.1912 14.79808844570172
ERS-1                   
1 21574U 91050A   20348.89668558  .00000030  00000-0  24514-4 0  9999
2 21574  98.6227 302.5201 0033974 112.6124 247.8662 14.37772362540906
ARIANE 40 R/B           
1 21610U 91050F   20349.18789326  .00000037  00000-0  25226-4 0  9998
2 21610  98.4472  56.4570 0004372  85.3774 331.4219 14.40926558543866
INTERCOSMOS 25          
1 21819U 91086A   20349.47741558  .00000010  00000-0  17526-5 0  9991
2 21819  82.5960  18.4987 1515013 248.3483  94.9867 12.05210204265988
SL-8 R/B                
1 21876U 92008B   20348.80976571  .00000048  00000-0  33572-4 0  9999
2 21876  82.9279 249.0984 0036140  73.5664 346.2835 13.75669763446530
SL-8 R/B                
1 21938U 92020B   20348.95604266  .00000096  00000-0  84083-4 0  9993
2 21938  82.9289 133.3124 0028333 231.0682 245.3628 13.75290407438341
COSMOS 2219             
1 22219U 92076A   20348.87718629  .00000089  00000-0  72003-4 0  9998
2 22219  71.0598  52.8974 0020166 242.7068 117.2001 14.13643711448174
SL-16 R/B               
1 22220U 92076B   20349.53236300  .00000163  00000-0  10594-3 0  9994
2 22220  71.0000 252.5032 0011254 135.4286  37.5129 14.16461833451508
COSMOS 2221             
1 22236U 92080A   20349.11156535  .00000285  00000-0  28281-4 0  9999
2 22236  82.5076 293.8780 0018331  85.6264 274.7047 14.87985509517032
SL-16 R/B               
1 22285U 92093B   20349.20718644 -.00000095  00000-0 -24316-4 0  9998
2 22285  71.0233  55.4100 0005707 317.7409  42.3274 14.15054612443048
COSMOS 2228             
1 22286U 92094A   20348.83565017  .00000251  00000-0  24482-4 0  9998
2 22286  82.5211 250.5915 0020367 201.5671 158.4691 14.88205765491125
SL-16 R/B               
1 22566U 93016B   20348.89048048  .00000260  00000-0  15895-3 0  9997
2 22566  71.0081 269.0917 0010822 340.9569  19.1147 14.14969239431710
COSMOS 2242             
1 22626U 93024A   20348.89814903  .00000247  00000-0  24099-4 0  9996
2 22626  82.5220 278.7301 0018169 200.8097 159.2384 14.88057211495544
SL-16 R/B               
1 22803U 93059B   20348.72965688  .00000196  00000-0  12139-3 0  9994
2 22803  70.9911  81.4566 0019352 246.1455 113.7641 14.16828560408692
ARIANE 40 R/B           
1 22830U 93061H   20349.15253773 -.00000001  00000-0  16483-4 0  9993
2 22830  98.7422  39.7997 0011527 151.0699 209.1125 14.31462489420783
COSMOS 2278             
1 23087U 94023A   20348.88768404  .00000260  00000-0  16233-3 0  9996
2 23087  71.0518 212.6027 0007092  64.0174 296.1678 14.13812596374557
SL-16 R/B               
1 23088U 94023B   20348.85890537  .00000066  00000-0  59254-4 0  9992
2 23088  70.9971 124.5603 0004910 301.5911  58.4732 14.14679740375682
SL-16 R/B               
1 23343U 94074B   20349.19353844  .00000056  00000-0  15255-4 0  9997
2 23343  97.9755  40.3644 0005608 297.0505 128.4026 14.76852127405158
SL-16 R/B               
1 23405U 94077B   20348.87479055  .00000162  00000-0  10810-3 0  9995
2 23405  70.9839  53.2103 0003716 223.0372 137.0460 14.15224034345731
ERS-2                   
1 23560U 95021A   20348.75408851  .00001395  00000-0  62224-4 0  9996
2 23560  98.5532 167.0197 0002315 288.4289  71.6693 15.23517724369415
ARIANE 40+ R/B          
1 23561U 95021B   20348.92634399  .00000061  00000-0  35162-4 0  9994
2 23561  98.7025  30.6676 0008006  84.1339  89.0229 14.37998529344367
SL-16 R/B               
1 23705U 95058B   20348.91681463 -.00000010  00000-0  19368-4 0  9992
2 23705  71.0225 232.4126 0011604 163.8643 196.2852 14.15144957297360
SL-16 R/B               
1 24298U 96051B   20349.46206029 -.00000132  00000-0 -45239-4 0  9998
2 24298  70.8398 251.0492 0013253  88.0361 272.2277 14.12483696252030
ORBVIEW 2 (SEASTAR)     
1 24883U 97037A   20349.19501936  .00000031  00000-0  27405-4 0  9999
2 24883  98.6269 101.7411 0001316 310.8978  49.2092 14.33585799234727
SL-16 R/B               
1 25400U 98043G   20348.84557417 -.00000025  00000-0  77603-5 0  9999
2 25400  98.6243 281.5787 0010086 166.0208 194.1253 14.25466456166574
SL-16 R/B               
1 25407U 98045B   20349.14764762 -.00000103  00000-0 -28024-4 0  9995
2 25407  71.0115 239.9519 0005654  46.6321 313.5272 14.15834168156786
ISS (ZARYA)             
1 25544U 98067A   20349.51681644  .00001105  00000-0  28029-4 0  9995
2 25544  51.6444 176.1954 0001746 130.0443 273.3523 15.49184960259976
SL-8 R/B                
1 25723U 99022C   20348.03227420  .00062466  00000-0  26499-3 0  9995
2 25723  48.4094  97.7799 0001387 245.6249 114.4564 15.84617729205865
CZ-4B R/B               
1 25732U 99025C   20348.95075983 -.00000012  00000-0  16037-4 0  9992
2 25732  98.9265  18.7657 0038194  59.8256   2.5713 14.17685446117254
OKEAN-O                 
1 25860U 99039A   20348.94051856  .00000090  00000-0  20450-4 0  9990
2 25860  98.2018  10.9526 0001560  71.3407 288.7971 14.76698463152002
SL-16 R/B               
1 25861U 99039B   20348.93528356  .00000064  00000-0  16346-4 0  9994
2 25861  98.2093 354.6547 0014521 304.3323 114.5835 14.78608916154142
DELTA 2 R/B             
1 25876U 99041E   20348.40713237 -.00000127  00000-0  19739-4 0  9999
2 25876  51.7647 323.8540 0531430 146.0162 217.6032 14.04488503 93775
HELIOS 1B               
1 25977U 99064A   20349.02661607  .00000091  00000-0  18460-4 0  9997
2 25977  98.2990 150.4186 0002425 108.3423 251.8053 14.82517246133021
TERRA                   
1 25994U 99068A   20349.49961686  .00000092  00000-0  30476-4 0  9993
2 25994  98.1975  61.1241 0001141  98.0950 279.0542 14.57124107116530
SL-16 R/B               
1 26070U 00006B   20348.87855803  .00000016  00000-0  32453-4 0  9990
2 26070  70.9991 156.2114 0017907 217.3383 142.6496 14.15468204 78027
MTI                     
1 26102U 00014A   20348.97980686  .00009508  00000-0  12914-3 0  9998
2 26102  97.4819 240.0252 0005445 298.2020  61.8649 15.57834455152444
TITAN 4B R/B            
1 26474U 00047B   20349.16929901  .00000337  00000-0  39935-4 0  9995
2 26474  67.9939 300.9877 0056312 354.7036   5.3502 14.96045871106206
ENVISAT                 
1 27386U 02009A   20349.51164971  .00000029  00000-0  22993-4 0  9999
2 27386  98.1402 347.1203 0001338  87.9744  24.4796 14.38004400984496
IDEFIX & ARIANE 42P R/B 
1 27422U 02021B   20349.15782686  .00000006  00000-0  18836-4 0  9999
2 27422  98.3777 303.0005 0013299  62.3141 297.9389 14.29302508968949
AQUA                    
1 27424U 02022A   20349.46901337  .00000117  00000-0  35918-4 0  9995
2 27424  98.2106 287.4437 0002122 116.2687 357.4458 14.57116487990132
CZ-4B R/B               
1 27432U 02024C   20348.91600887 -.00000011  00000-0  18348-4 0  9993
2 27432  99.0900 354.1763 0050938  31.1296  28.7987 14.14101433959010
MIDORI II (ADEOS-II)    
1 27597U 02056A   20349.11895368  .00000046  00000-0  36145-4 0  9995
2 27597  98.5431 292.3666 0001353 127.1346 232.9959 14.27474625937440
H-2A R/B                
1 27601U 02056E   20349.53329233  .00000105  00000-0  52402-4 0  9990
2 27601  98.2078  15.8696 0073333 101.0881  16.9510 14.31991070940465
CZ-4B R/B               
1 28059U 03049C   20349.03574313  .00000041  00000-0  21685-4 0  9995
2 28059  98.4887 267.5712 0049231 310.5714  49.1201 14.52625782908882
CZ-2C R/B               
1 28222U 04012C   20349.16558818  .00000581  00000-0  38369-4 0  9990
2 28222  97.7025 312.4544 0048000 133.8882 237.1822 15.10603943913152
SL-16 R/B               
1 28353U 04021B   20348.93371008  .00000305  00000-0  18472-3 0  9999
2 28353  71.0009 282.8997 0003337  47.5112 312.6291 14.14238309852511
CZ-4B R/B               
1 28415U 04035C   20348.85598318  .00000649  00000-0  46283-4 0  9992
2 28415  97.5918  28.2456 0052993 100.5017 260.2188 15.06979768890653
CZ-2C R/B               
1 28480U 04046B   20349.50924076 -.00000016  00000-0  86160-5 0  9991
2 28480  98.0616  10.3380 0142864  52.1795  67.3207 14.25736064836092
ARIANE 5 R/B            
1 28499U 04049H   20349.20642211  .00000078  00000-0  16819-4 0  9999
2 28499  98.0631  91.6370 0093174  52.9118   6.4489 14.80073093862728
CZ-2D R/B               
1 28738U 05024B   20348.78146265  .00000639  00000-0  40577-4 0  9990
2 28738  97.3714   5.3086 0010295 286.4160  73.5939 15.12201911848501
SUZAKU (ASTRO-EII)      
1 28773U 05025A   20348.56830127  .00001764  00000-0  80490-4 0  9991
2 28773  31.3822 291.7553 0004693 212.1203 147.9159 15.17927146851196
ALOS (DAICHI)           
1 28931U 06002A   20349.39158735  .00000200  00000-0  47781-4 0  9993
2 28931  97.8652 326.4927 0000435  63.9621 296.1629 14.62773940794002
H-2A R/B                
1 28932U 06002B   20348.94643294  .00000402  00000-0  42682-4 0  9992
2 28932  98.3304 349.2047 0089810  94.3740 321.8262 14.92374333807913
AKARI (ASTRO-F)         
1 28939U 06005A   20349.46264358  .00004889  00000-0  12634-3 0  9996
2 28939  98.2467 344.5659 0092073  54.6199 306.3600 15.35415595808524
RESURS-DK 1             
1 29228U 06021A   20349.02477938  .00000210  00000-0  23090-4 0  9991
2 29228  69.9361  90.8414 0005911 218.9519 141.1217 15.02613471799727
GENESIS 1               
1 29252U 06029A   20348.64222433  .00000743  00000-0  45844-4 0  9993
2 29252  64.5232  75.4233 0020170 357.4570   2.6447 15.18370599795304
CZ-4B R/B               
1 29507U 06046C   20348.93063933  .00000355  00000-0  32465-4 0  9999
2 29507  97.7188  10.0052 0045878 283.7323  75.8796 15.00595648772284
CZ-2C R/B               
1 31114U 07010B   20348.85828133  .00000008  00000-0  22176-4 0  9993
2 31114  98.2395 189.5095 0060836 103.8644 256.9312 14.19340449708455
COSMO-SKYMED 1          
1 31598U 07023A   20349.52838314 -.00000173  00000-0 -15172-4 0  9993
2 31598  97.8825 170.0784 0001465  87.5714 272.5668 14.82157129731504
GENESIS 2               
1 31789U 07028A   20348.83037208  .00001139  00000-0  66140-4 0  9998
2 31789  64.5026 116.7721 0032440 224.7213 135.1293 15.17493488742391
COSMOS 2428             
1 31792U 07029A   20349.18603884 -.00000167  00000-0 -64649-4 0  9995
2 31792  70.8942 255.3716 0007716 182.7927 177.3152 14.12245838694249
SL-16 R/B               
1 31793U 07029B   20348.96647094 -.00000252  00000-0 -10636-3 0  9993
2 31793  70.9756 229.2680 0002611 281.2738  89.6063 14.14440905695047
KORONAS-FOTON           
1 33504U 09003A   20349.26708231  .00000237  00000-0  10674-4 0  9998
2 33504  82.4427  43.8933 0019476  21.7078 338.4976 15.15806983654726
H-2A R/B                
1 38341U 12025E   20349.46676209  .00000238  00000-0  35380-4 0  9993
2 38341  98.5165 156.3816 0055726  14.9159 345.3681 14.84129883464146
CUSAT 2 & FALCON 9 R/B  
1 39271U 13055G   20349.20614477  .00007674  00000-0  18265-3 0  9994
2 39271  80.9677  73.3858 0579032 348.9829   9.9104 14.50287352376763
SL-4 R/B                
1 39679U 14021B   20349.15119695  .00000480  00000-0  40960-4 0  9992
2 39679  51.6174 353.3718 0170943 208.3851 150.7725 15.06678553366436
ALOS-2                  
1 39766U 14029A   20349.48217426  .00000067  00000-0  15797-4 0  9995
2 39766  97.9229  83.5073 0001497  90.9386 269.2006 14.79471728354314
CZ-2C R/B               
1 40306U 14071B   20348.84922873  .00005600  00000-0  11478-3 0  9991
2 40306  97.3475 297.2725 0013196 226.7955 133.2193 15.46403080341551
SL-27 R/B               
1 40354U 14084B   20349.17557319  .00001329  00000-0  33203-4 0  9999
2 40354  74.7378  16.1979 0035597 115.2226 245.2684 15.40618981336203
YAOGAN 29               
1 41038U 15069A   20349.42455175  .00000095  00000-0  19383-4 0  9990
2 41038  98.0255 337.2470 0002108  61.2804 298.8622 14.80475984272902
ASTRO-H (HITOMI)        
1 41337U 16012A   20349.15700577  .00000368  00000-0  22953-4 0  9990
2 41337  31.0062 310.3158 0012272  47.0573 313.1090 14.98756314264482
HXMT (HUIYAN)           
1 42758U 17034A   20349.13596282  .00000578  00000-0  49596-4 0  9992
2 42758  43.0170 130.1796 0008861  72.2690 102.3057 15.08995918193016
CZ-2C R/B               
1 43521U 18054D   20348.85806924  .00000865  00000-0  48393-4 0  9992
2 43521  35.1527 154.1746 0083209 260.5046  98.6255 15.11238848136302
AEOLUS                  
1 43600U 18066A   20349.46603203  .00034585  00000-0  13648-3 0  9996
2 43600  96.7178 353.1508 0004796 114.7516 245.4256 15.86749021133917
SAOCOM 1A               
1 43641U 18076A   20349.06413600  .00000066  00000-0  14861-4 0  9994
2 43641  97.8860 172.6263 0001383  81.6352 278.5013 14.82162351118206
CREW DRAGON DEMO-1 DEB  
1 44064U 19011B   20348.67449931  .00035523  00000-0  26825-3 0  9994
2 44064  51.6312 120.8498 0002504 356.9292   3.1690 15.72097056101022
CZ-2F R/B               
1 46390U 20063B   20349.06935789  .00039546  00000-0  18254-3 0  9998
2 46390  50.2027 248.2660 0010611  23.6076 336.5392 15.83006563 15937
2020-063G               
1 46395U 20063G   20348.91882936  .00017074  00000-0  94186-4 0  9992
2 46395  50.2055 250.3758 0009593  12.7530 347.3692 15.79705258 15885
